[
  {
    "id": 1,
    "title": "<b>MUSCULOSKELETAL EDUCATION AND RESEARCH CENTER (MERC)</b>",
    "body": "<br>Globus Medical is committed to continuous improvement in patient care and outcomes, and works with hospitals, surgeons, educators, researchers and volunteers to pursue this goal. Globus established MERC which provides educational opportunities such as programs that offer hands-on labs, case reviews and discussions, live surgery observations, and a comprehensive lecture series.<br><br>"
  },
  {
    "id": 2,
    "title": "<b>Request Process:</b>",
    "body": "<br>1. Please complete the Preceptorship Case Request in its entirety.<br> 2. Upload the visiting surgeon’s updated CV when indicated.<br> 3. MERC will contact you within 2-3 business days of receipt of all documents with further training details.<br><br>Please note: Incomplete requests will not be processed until all required paperwork is submitted. All requests require a minimum of thirty (30) days for program coordination.<br><br>"
  },
  {
    "id": 3,
    "title": "<B>Visiting Sales Representative Responsibilities:</B>",
    "body": "<br> 1. Must attend the preceptorship visit with the visiting surgeon.<br> 2. Book your flights, hotel accommodations and rental car (MERC will arrange travel and hotel for the visiting surgeon) through Concur.<br> 3. Ensure proper credentialing is confirmed for approved hospital visit (MERC to provide this information per site) (Rep responsible for their own credentialing).<br> 4. Contact the host sales representative to discuss and review the objectives of the training.<br><br>For registration and additional information please contact your local Globus Medical representative or email preceptorships@globusmedical.com"
  }
]