[
    {
        "spine": "<b>Cadaver Lab:</b> Surgeon proctor to travel to the surgeon attendee location or surgeon attendee to travel to the surgeon proctor location for cadaver lab training.<br><b>Case Observation:</b> Surgeon attendee spends a day in surgery with surgeon proctor.<br><b>Peer-to-Peer Webinar:</b> Connect with a surgeon proctor remotely, for a live educational presentation and conversation on the safe and effective use of Globus Medical instrumentation in a clinical setting.<br><b>Reverse:</b> Surgeon proctor attends and supports first case in surgical setting (workflow and set-up).<br><b>Skin-to-Skin (Case + Lab):</b> Both case observation and cadaveric training, combined into one visit.",
        "inr": "<b>Premier Center:</b> Case Observation site offering peer-to-peer education in the OR by trained robotic spine surgeons.<br><b>Peer-to-Peer Webinar: </b> Connect with a surgeon proctor remotely, for a live educational presentation and conversation on the safe and effective use of Globus Medical instrumentation in a clinical setting."
  }
]