{
       "approach" :
		[   
		    {"header": "APPROACH?",
			"name1": "OPEN", "approachurl1":"approach", "approachid1":"open","char":"or", 
			"name2": "PERCUTANEOUS", "approachurl2":"approach", "approachid2":"percutaneous"}
		
		],		
		"open" :
		 [
			{"header": "AUGMENTING WITH CEMENT?",
			"name1": "YES", "approachurl1":"approach", "approachid1":"openyes", "char":"or",
			"name2": "NO", "approachurl2":"approach", "approachid2":"openno",
			    "breadcrumps" : [
					{"name" : "OPEN", "link" : "approach/open", "icon" : ""}
					]
			}
			
		 ],		 
				 "openyes" :
				 [
					{"header": "LOCKING CAP?",
					"name1": "THREADED" , "approachurl1":"creovalue", "approachid1" : "creofenestt","char":"or",
					"name2": "NON-THREADED", "approachurl2":"creovalue", "approachid2" : "creofensnonth",
						"breadcrumps" : [
						{"name" : "OPEN", "link" : "approach/open", "icon" : ">"},
						{"name" : "YES", "link" : "approach/openyes", "icon" : ""}
						]
					}
				 ],				 
				 "openno" :
				 [
					{"header": "PROCEDURE?", 
					"name1": "DEGEN", "approachurl1":"approach", "approachid1":"degan","char":"or",
					"name2": "DEFORMITY", "approachurl2":"approach", "approachid2":"deformity",
					"breadcrumps" : [
						{"name" : "OPEN", "link" : "approach/open", "icon" : ">"},
						{"name" : "NO", "link" : "approach/openno", "icon" : ""}
						]
						}
					 ],
				 "degan":
				 [
					 {"header":"DEGEN",
					 "name1":"PEDICLE SCREW","approachurl1":"approach", "approachid1":"pediclescrew","char":"or",
					 "name2":"MIDLINE CORTICAL SCREW","approachurl2":"approach", "approachid2":"midlinescrew",
					 "breadcrumps" : [
						{"name" : "OPEN", "link" : "approach/approach", "icon" : ">"},
						{"name" : "NO", "link" : "approach/openno", "icon" : ">"},
						{"name" : "DEGEN", "link" : "approach/degan", "icon" : ""}
						]
					 }
				 ],
				 
					"pediclescrew":
					[
						{"header":"LOCKING CAP",
						"name1": "THREADED","approachurl1":"approach", "approachid1":"pediclelocthread","char":"or",
						"name2": "NON-THREADED","approachurl2":"approach", "approachid2":"pedilocnonth",
						"breadcrumps" : [
							{"name" : "OPEN", "link" : "approach/approach", "icon" : ">"},
							{"name" : "NO", "link" : "approach/openno", "icon" : ">"},
							{"name" : "DEGEN", "link" : "approach/degan", "icon" : ">"},
							{"name" : "PEDICLE SCREW", "link" : "approach/pediclescrew", "icon" : ""}
							]
						}
					],
						"pediclelocthread":
						[
							{"header":"SCREW HEAD",
							"name1": "TITANIUM ALLOY" ,"approachurl1":"approach", "approachid1":"screwtype","char":"or",
							"name2": "COBALT CHROME","approachurl2":"approach", "approachid2":"screwtypecocr",
							"breadcrumps" : [
								{"name" : "OPEN", "link" : "approach/open", "icon" : ">"},
								{"name" : "NO", "link" : "approach/openno", "icon" : ">"},
								{"name" : "DEGEN", "link" : "approach/degan", "icon" : ">"},
								{"name" : "PEDICLE SCREW", "link" : "approach/pediclescrew", "icon" : ">"},
								{"name" : "THREADED", "link" : "approach/pediclelocthread", "icon" : ""}
								]
							}
						],
                         "screwtype":
                        [
                          {"header":"SCREW TYPE",
								"name1":"PREASSEMBLED", "approachurl1":"approach", "approachid1" : "tiscrew","char":"or",
							    "name2":"MODULAR", "approachurl2":"approach", "approachid2" : "tiscrewmodular",
								"breadcrumps" : [
									{"name" : "OPEN", "link" : "approach/open", "icon" : ">"},
									{"name" : "NO", "link" : "approach/openno", "icon" : ">"},
									{"name" : "DEGEN", "link" : "approach/degan", "icon" : ">"},
									{"name" : "PEDICLE SCREW", "link" : "approach/pediclescrew", "icon" : ">"},
									{"name" : "THREADED", "link" : "approach/pediclelocthread", "icon" : ">"},
									{"name" : "TITANIUM ALLOY", "link" : "approach/screwtype", "icon" : ""}
									]
								}  
                        ],
					
						"tiscrew":
							[
							{"header":"ROD DIAMETER",
							"name1":"5.5mm/6.0mm","approachurl1":"creovalue", "approachid1" : "creothdegan","char":",",
							"name3":"6.0mm/6.35mm", "approachurl3":"creovalue", "approachid3" : "creodlxdegan", 
							"breadcrumps" : [
								{"name" : "OPEN", "link" : "approach/open", "icon" : ">"},
								{"name" : "NO", "link" : "approach/openno", "icon" : ">"},
								{"name" : "DEGEN", "link" : "approach/degan", "icon" : ">"},
								{"name" : "PEDICLE SCREW", "link" : "approach/pediclescrew", "icon" : ">"},
								{"name" : "THREADED", "link" : "approach/pediclelocthread", "icon" : ">"},
								{"name" : "TITANIUM ALLOY", "link" : "approach/screwtype", "icon" : ">"},
                                {"name" : "PREASSEMBLED", "link" : "approach/tiscrew", "icon" : ""}
								]
							}
							],
                          "tiscrewmodular":
                            [
                              {"header":"ROD DIAMETER",
							"name1":"5.5mm/6.0mm","approachurl1":"creovalue", "approachid1" : "creoampthdegan",
							"breadcrumps" : [
								{"name" : "OPEN", "link" : "approach/open", "icon" : ">"},
								{"name" : "NO", "link" : "approach/openno", "icon" : ">"},
								{"name" : "DEGEN", "link" : "approach/degan", "icon" : ">"},
								{"name" : "PEDICLE SCREW", "link" : "approach/pediclescrew", "icon" : ">"},
								{"name" : "THREADED", "link" : "approach/pediclelocthread", "icon" : ">"},
								{"name" : "TITANIUM ALLOY", "link" : "approach/screwtype", "icon" : ">"},
                                                                {"name" : "MODULAR", "link" : "approach/tiscrewmodular", "icon" : ""}
								]
							 }
                            ],
							
								"tiscrewrd55":
								[
								{"header":"SCREW TYPE",
								"name1":"PREASSEMBLED", "approachurl1":"creovalue", "approachid1" : "creothdegan","char":"or",
							    "name2":"MODULAR", "approachurl2":"creovalue", "approachid2" : "creoampthdegan",
								"breadcrumps" : [
									{"name" : "OPEN", "link" : "approach/open", "icon" : ">"},
									{"name" : "NO", "link" : "approach/openno", "icon" : ">"},
									{"name" : "DEGEN", "link" : "approach/degan", "icon" : ">"},
									{"name" : "PEDICLE SCREW", "link" : "approach/pediclescrew", "icon" : ">"},
									{"name" : "THREADED", "link" : "approach/pediclelocthread", "icon" : ">"},
									{"name" : "TITANIUM ALLOY", "link" : "approach/screwtype", "icon" : ""}
									]
								}
								],
								
								"tiscrewrd6":
								[
								{"header":"SYSTEM",
								"name1":"THREADED", "approachurl1":"creovalue", "approachid1":"creothdegan6","char":"or",
								"name2":"DLX", "approachurl2":"creovalue", "approachid2":"creodlxdegan6",
							"breadcrumps" : [
								{"name" : "OPEN", "link" : "approach/open", "icon" : ">"},
								{"name" : "NO", "link" : "approach/openno", "icon" : ">"},
								{"name" : "DEGEN", "link" : "approach/degan", "icon" : ">"},
								{"name" : "PEDICLE SCREW", "link" : "approach/pediclescrew", "icon" : ">"},
								{"name" : "THREADED", "link" : "approach/pediclelocthread", "icon" : ">"},
								{"name" : "TITANIUM ALLOY", "link" : "approach/tiscrew", "icon" : ">"},
								{"name" : "6.0mm", "link" : "approach/tiscrewrd6", "icon" : ""}
								]
								}
								],
                        "screwtypecocr":
                        [
                           				 {"header":"SCREW TYPE",
								"name1":"PREASSEMBLED", "approachurl1":"approach", "approachid1" : "cocrrod","char":"or",
							        "name2":"MODULAR", "approachurl2":"approach", "approachid2" : "cocrrodmodular",
								"breadcrumps" : [
									{"name" : "OPEN", "link" : "approach/open", "icon" : ">"},
									{"name" : "NO", "link" : "approach/openno", "icon" : ">"},
									{"name" : "DEGEN", "link" : "approach/degan", "icon" : ">"},
									{"name" : "PEDICLE SCREW", "link" : "approach/pediclescrew", "icon" : ">"},
									{"name" : "THREADED", "link" : "approach/pediclelocthread", "icon" : ">"},
									{"name" : "COBALT CHROME", "link" : "approach/screwtypecocr", "icon" : ""}
									]
								}
                        ],
								
						"cocrrod":
						[
							{"header":"ROD DIAMETER",
							"name1": "4.75mm" ,"approachurl1":"creovalue", "approachid1" : "creothcocr4degan","char":"or",
							"name2": "5.5mm/6.0mm","approachurl2":"creovalue", "approachid2" : "creothcocrdegan",
							"breadcrumps" : [
								{"name" : "OPEN", "link" : "approach/open", "icon" : ">"},
								{"name" : "NO", "link" : "approach/openno", "icon" : ">"},
								{"name" : "DEGEN", "link" : "approach/degan", "icon" : ">"},
								{"name" : "PEDICLE SCREW", "link" : "approach/pediclescrew", "icon" : ">"},
								{"name" : "THREADED", "link" : "approach/pediclelocthread", "icon" : ">"},
								{"name" : "COBALT CHROME", "link" : "approach/screwtypecocr", "icon" : ">"},
                                                                {"name" : "PREASSEMBLED", "link" : "approach/cocrrod", "icon" : ""}
								]
							}
						],
                        "cocrrodmodular":
                        [
                            {"header":"ROD DIAMETER",
							"name1": "4.75mm" ,"approachurl1":"creovalue", "approachid1" : "creoampthcocr4degan","char":"or",
							"name2": "5.5mm/6.0mm","approachurl2":"creovalue", "approachid2" : "creoampthcocrdegan",
							"breadcrumps" : [
								{"name" : "OPEN", "link" : "approach/open", "icon" : ">"},
								{"name" : "NO", "link" : "approach/openno", "icon" : ">"},
								{"name" : "DEGEN", "link" : "approach/degan", "icon" : ">"},
								{"name" : "PEDICLE SCREW", "link" : "approach/pediclescrew", "icon" : ">"},
								{"name" : "THREADED", "link" : "approach/pediclelocthread", "icon" : ">"},
								{"name" : "COBALT CHROME", "link" : "approach/screwtypecocr", "icon" : ">"},
                                {"name" : "MODULAR", "link" : "approach/cocrrodmodular", "icon" : ""}
								]
							}
                        ],
					
						"rod4":
						[
							{"header":"SCREW TYPE",
							"name1": "PREASSEMBLED" ,"approachurl1":"creovalue", "approachid1":"creothcocr4degan","char":"or",
							"name2": "MODULAR","approachurl2":"creovalue", "approachid2":"creoampthcocr4degan",
							"breadcrumps" : [
								{"name" : "OPEN", "link" : "approach/open", "icon" : ">"},
								{"name" : "NO", "link" : "approach/openno", "icon" : ">"},
								{"name" : "DEGEN", "link" : "approach/degan", "icon" : ">"},
								{"name" : "PEDICLE SCREW", "link" : "approach/pediclescrew", "icon" : ">"},
								{"name" : "THREADED", "link" : "approach/pediclelocthread", "icon" : ">"},
								{"name" : "COBALT CHROME", "link" : "approach/cocrrod", "icon" : ">"},
								{"name" : "4.75mm", "link" : "approach/rod4", "icon" : ""}
								]
							}
						],
					
						"rod5":
						[
							{"header":"SCREW TYPE",
							"name1": "PREASSEMBLED" ,"approachurl1":"creovalue", "approachid1":"creothcocrdegan","char":"or",
							"name2": "MODULAR","approachurl2":"creovalue", "approachid2":"creoampthcocrdegan",
							"breadcrumps" : [
								{"name" : "OPEN", "link" : "approach/open", "icon" : ">"},
								{"name" : "NO", "link" : "approach/openno", "icon" : ">"},
								{"name" : "DEGEN", "link" : "approach/degan", "icon" : ">"},
								{"name" : "PEDICLE SCREW", "link" : "approach/pediclescrew", "icon" : ">"},
								{"name" : "THREADED", "link" : "approach/pediclelocthread", "icon" : ">"},
								{"name" : "COBALT CHROME", "link" : "approach/cocrrod", "icon" : ">"},
								{"name" : "5.5mm", "link" : "approach/rod5", "icon" : ""}
								]
							}
						],
		
					"pedilocnonth":
					[
						{"header":"SCREW HEAD",
						"name1": "TITANIUM ALLOY","approachurl1":"approach", "approachid1" : "pedilocnonthti","char":"or",
						"name2": "COBALT CHROME","approachurl2":"approach", "approachid2" : "pedilocnonthcocr",
						"breadcrumps" : [
					{"name" : "OPEN", "link" : "approach/open", "icon" : ">"},
					{"name" : "NO", "link" : "approach/openno", "icon" : ">"},
					{"name" : "DEGEN", "link" : "approach/degan", "icon" : ">"},
					{"name" : "PEDICLE SCREW", "link" : "approach/pediclescrew", "icon" : ">"},
					{"name" : "NON-THREADED", "link" : "approach/pedilocnonth", "icon" : ""}
					]
						}
					],
				
				        "pedilocnonthti":
						[
							{"header":"SCREW TYPE",
							"name1": "PREASSEMBLED" ,"approachurl1":"creovalue", "approachid1":"creo5degan","char":"or",
							"name2": "MODULAR","approachurl2":"creovalue", "approachid2":"creoamp5degan",
							"breadcrumps" : [
								{"name" : "OPEN", "link" : "approach/open", "icon" : ">"},
								{"name" : "NO", "link" : "approach/openno", "icon" : ">"},
								{"name" : "DEGEN", "link" : "approach/degan", "icon" : ">"},
								{"name" : "PEDICLE SCREW", "link" : "approach/pediclescrew", "icon" : ">"},
								{"name" : "NON-THREADED", "link" : "approach/pedilocnonth", "icon" : ">"},
								{"name" : "TITANIUM ALLOY", "link" : "approach/pedilocnonthti", "icon" : ""}
								]
							}
						],
						
						"pedilocnonthcocr":
						[
							{"header":"SCREW TYPE",
							"name1": "PREASSEMBLED" ,"approachurl1":"creovalue", "approachid1":"creo5cocrdegan","char":"or",
							"name2": "MODULAR","approachurl2":"creovalue", "approachid2":"creoamp5cocrdegan",
							"breadcrumps" : [
								{"name" : "OPEN", "link" : "approach/open", "icon" : ">"},
								{"name" : "NO", "link" : "approach/openno", "icon" : ">"},
								{"name" : "DEGEN", "link" : "approach/degan", "icon" : ">"},
								{"name" : "PEDICLE SCREW", "link" : "approach/pediclescrew", "icon" : ">"},
								{"name" : "NON-THREADED", "link" : "approach/pedilocnonth", "icon" : ">"},
								{"name" : "COBALT CHROME", "link" : "approach/pedilocnonthcocr", "icon" : ""}
								]
							}
						],
					
					
						"midlinescrew":
						[
							{"header":"LOCKING CAP",
							"name1": "THREADED" ,"approachurl1":"creovalue", "approachid1":"creomcsth","char":"or",
							"name2": "NON THREADED","approachurl2":"creovalue", "approachid2":"creomcs",
							"breadcrumps" : [
								{"name" : "OPEN", "link" : "approach/open", "icon" : ">"},
								{"name" : "NO", "link" : "approach/openno", "icon" : ">"},
								{"name" : "DEGEN", "link" : "approach/degan", "icon" : ">"},
								{"name" : "MIDLINE CORTICAL SCREW", "link" : "approach/midlinescrew", "icon" : ""}
								]
							}
						],
		
					"deformity":
					[
						{"header":"LOCKING CAP?",
						"name1": "THREADED" ,"approachurl1":"approach", "approachid1" : "deformitylocth","char":"or",
						"name2": "NON-THREADED" ,"approachurl2":"approach", "approachid2" : "deformitylocnonth",
						"header2":"LOCKING SLEEVE?",
						"name4": "CREO Side Loading","approachurl4":"creovalue", "approachid4" : "creoside",
						"breadcrumps" : [
							{"name" : "OPEN", "link" : "approach/open", "icon" : ">"},
							{"name" : "NO", "link" : "approach/openno", "icon" : ">"},
							{"name" : "DEFORMITY", "link" : "approach/deformity", "icon" : ""}
							]
						}
					],
						
							"deformitylocth":
							[
								{"header":"SCREW HEAD",
								"name1": "TITANIUM ALLOY" ,"approachurl1":"approach", "approachid1" : "deformityscrewtype","char":"or",
								"name2": "COBALT CHROME","approachurl2":"approach", "approachid2" : "deformityscrewtypecocr",
								"breadcrumps" : [
									{"name" : "OPEN", "link" : "approach/open", "icon" : ">"},
									{"name" : "NO", "link" : "approach/openno", "icon" : ">"},
									{"name" : "DEFORMITY", "link" : "approach/deformity", "icon" : ">"},
									{"name" : "THREADED", "link" : "approach/deformitylocth", "icon" : ""}
									]
								}
							],
                            "deformityscrewtype":
                            [
                               {"header":"SCREW TYPE",
										"name1": "PREASSEMBLED" ,"approachurl1":"approach", "approachid1" :"deformitylocthti","char":"or",
										"name2": "MODULAR","approachurl2":"approach", "approachid2" :"deformitylocthtimodular",
										"breadcrumps" : [
											{"name" : "OPEN", "link" : "approach/open", "icon" : ">"},
											{"name" : "NO", "link" : "approach/openno", "icon" : ">"},
											{"name" : "DEFORMITY", "link" : "approach/deformity", "icon" : ">"},
											{"name" : "THREADED", "link" : "approach/deformitylocth", "icon" : ">"},
											{"name" : "TITANIUM ALLOY", "link" : "approach/deformityscrewtype", "icon" : ""}
											]
										} 
                            ],
								"deformitylocthti":
								[
									{"header":"ROD DIAMETER",
									"name1": "5.5mm/6.0mm","approachurl1":"creovalue", "approachid1" : "creothdeformity","char":",",
									"name3": "6.0mm/6.35mm", "approachurl3":"creovalue", "approachid3" : "creodlxdeformity",
									"breadcrumps" : [
										{"name" : "OPEN", "link" : "approach/open", "icon" : ">"},
										{"name" : "NO", "link" : "approach/openno", "icon" : ">"},
										{"name" : "DEFORMITY", "link" : "approach/deformity", "icon" : ">"},
										{"name" : "THREADED", "link" : "approach/deformitylocth", "icon" : ">"},
										{"name" : "TITANIUM ALLOY", "link" : "approach/deformityscrewtype", "icon" : ">"},
                                       					        {"name" : "PREASSEMBLED", "link" : "approach/deformitylocthti", "icon" : ""}
										]
									}
								],
                                "deformitylocthtimodular":
                                [
                                   {"header":"ROD DIAMETER",
									"name1": "5.5mm/6.0mm","approachurl1":"creovalue", "approachid1" : "creoampthdeformity",
									"breadcrumps" : [
										{"name" : "OPEN", "link" : "approach/open", "icon" : ">"},
										{"name" : "NO", "link" : "approach/openno", "icon" : ">"},
										{"name" : "DEFORMITY", "link" : "approach/deformity", "icon" : ">"},
										{"name" : "THREADED", "link" : "approach/deformitylocth", "icon" : ">"},
										{"name" : "TITANIUM ALLOY", "link" : "approach/deformityscrewtype", "icon" : ">"},
                                        {"name" : "MODULAR", "link" : "approach/deformitylocthti", "icon" : ""}
										]
									} 
                                ],
									"ti5":
									[
										{"header":"SCREW TYPE",
										"name1": "PREASSEMBLED" ,"approachurl1":"creovalue", "approachid1" :"creothdeformity","char":"or",
										"name2": "MODULAR","approachurl2":"creovalue", "approachid2" :"creoampthdeformity",
										"breadcrumps" : [
											{"name" : "OPEN", "link" : "approach/open", "icon" : ">"},
											{"name" : "NO", "link" : "approach/openno", "icon" : ">"},
											{"name" : "DEFORMITY", "link" : "approach/deformity", "icon" : ">"},
											{"name" : "THREADED", "link" : "approach/deformitylocth", "icon" : ">"},
											{"name" : "TITANIUM ALLOY", "link" : "approach/deformitylocthti", "icon" : ">"},
											{"name" : "5.5mm", "link" : "approach/ti5", "icon" : ""}
											]
										}
									],
									"ti6":
									[
										{"header":"SCREW TYPE",
										"name1": "PREASSEMBLED","approachurl1":"approach", "approachid1" : "ti6pre",
										"breadcrumps" : [
											{"name" : "OPEN", "link" : "approach/open", "icon" : ">"},
											{"name" : "NO", "link" : "approach/openno", "icon" : ">"},
											{"name" : "DEFORMITY", "link" : "approach/deformity", "icon" : ">"},
											{"name" : "THREADED", "link" : "approach/deformitylocth", "icon" : ">"},
											{"name" : "TITANIUM ALLOY", "link" : "approach/deformitylocthti", "icon" : ">"},
											{"name" : "6.0mm", "link" : "approach/ti6", "icon" : ""}
											]
										}
									],
									
										"ti6pre":
										[
											{"header":"SYSTEM",
											"name1": "THREADED" , "approachurl1":"creovalue", "approachid1":"creothdeformity6" ,"char":"or",
											"name2": "DLX","approachurl2":"creovalue", "approachid2":"creodlxdeformity6",
											"breadcrumps" : [
												{"name" : "OPEN", "link" : "approach/open", "icon" : ">"},
												{"name" : "NO", "link" : "approach/openno", "icon" : ">"},
												{"name" : "DEFORMITY", "link" : "approach/deformity", "icon" : ">"},
												{"name" : "THREADED", "link" : "approach/deformitylocth", "icon" : ">"},
												{"name" : "TITANIUM ALLOY", "link" : "approach/deformitylocthti", "icon" : ">"},
												{"name" : "6.0mm", "link" : "approach/ti6", "icon" : ">"},
												{"name" : "PREASSEMBLED", "link" : "approach/ti6pre", "icon" : ""}
												]
											}
										],
									
									
									"deformitylocnonth":
									[
										{"header":"SCREW HEAD",
										"name1": "TITANIUM ALLOY","approachurl1":"approach", "approachid1" : "deformitylocnonthti","char":"or",
										"name2": "COBALT CHROME","approachurl2":"approach", "approachid2" : "deformitylocnonthcocr",
										"breadcrumps" : [
												{"name" : "OPEN", "link" : "approach/open", "icon" : ">"},
												{"name" : "NO", "link" : "approach/openno", "icon" : ">"},
												{"name" : "DEFORMITY", "link" : "approach/deformity", "icon" : ">"},
												{"name" : "NON-THREADED", "link" : "approach/deformitylocnonth", "icon" : ""}
												]
										}
									],
									
										"deformitylocnonthti":
										[
											{"header":"SCREW TYPE",
											"name1": "PREASSEMBLED" ,"approachurl1":"creovalue", "approachid1":"creo5deformity","char":"or",
											"name2": "MODULAR","approachurl2":"creovalue", "approachid2":"creoamp5deformity",
											"breadcrumps" : [
												{"name" : "OPEN", "link" : "approach/open", "icon" : ">"},
												{"name" : "NO", "link" : "approach/openno", "icon" : ">"},
												{"name" : "DEFORMITY", "link" : "approach/deformity", "icon" : ">"},
												{"name" : "NON-THREADED", "link" : "approach/deformitylocnonth", "icon" : ">"},
												{"name" : "TITANIUM ALLOY", "link" : "approach/deformitylocnonthti", "icon" : ""}
												]
											}
										],
										
										"deformitylocnonthcocr":
										[
											{"header":"SCREW TYPE",
											"name1": "PREASSEMBLED" ,"approachurl1":"creovalue", "approachid1":"creo5cocrdeformity","char":"or",
											"name2": "MODULAR","approachurl2":"creovalue", "approachid2":"creoamp5cocrdeformity",
											"breadcrumps" : [
												{"name" : "OPEN", "link" : "approach/open", "icon" : ">"},
												{"name" : "NO", "link" : "approach/openno", "icon" : ">"},
												{"name" : "DEFORMITY", "link" : "approach/deformity", "icon" : ">"},
												{"name" : "NON-THREADED", "link" : "approach/deformitylocnonth", "icon" : ">"},
												{"name" : "COBALT CHROME", "link" : "approach/deformitylocnonthcocr", "icon" : ""}
												]
											}
										],
                            
							"deformityscrewtypecocr":
										[
											{"header":"SCREW TYPE",
											"name1": "PREASSEMBLED" ,"approachurl1":"approach", "approachid1":"deformitylocthcocr","char":"or",
											"name2": "MODULAR","approachurl2":"approach", "approachid2":"deformitylocthcocrmodular",
											"breadcrumps" : [
												{"name" : "OPEN", "link" : "approach/open", "icon" : ">"},
												{"name" : "NO", "link" : "approach/openno", "icon" : ">"},
												{"name" : "DEFORMITY", "link" : "approach/deformity", "icon" : ">"},
												{"name" : "THREADED", "link" : "approach/deformitylocth", "icon" : ">"},
												{"name" : "COBALT CHROME", "link" : "approach/deformityscrewtypecocr", "icon" : ""}
												]
											}
										],		
							"deformitylocthcocr":
							[
								{"header":"ROD DIAMETER",
								"name1": "4.75mm" ,"approachurl1":"creovalue", "approachid1":"creothcocr4deformity","char":",",
								"name2": "5.5mm/6.0mm" ,"approachurl2":"creovalue", "approachid2":"creothcocrdeformity",
								"breadcrumps" : [
									{"name" : "OPEN", "link" : "approach/open", "icon" : ">"},
									{"name" : "NO", "link" : "approach/openno", "icon" : ">"},
									{"name" : "DEFORMITY", "link" : "approach/deformity", "icon" : ">"},
									{"name" : "THREADED", "link" : "approach/deformitylocth", "icon" : ">"},
									{"name" : "COBALT CHROME", "link" : "approach/deformityscrewtypecocr", "icon" : ">"},
                                    					{"name" : "PREASSEMBLED", "link" : "approach/deformitylocthcocr", "icon" : ""}
									]
								}
							],
                            "deformitylocthcocrmodular":
                            [
                                {"header":"ROD DIAMETER",
								"name1": "4.75mm" ,"approachurl1":"creovalue", "approachid1":"creoampthcocr4deformity","char":",",
								"name2": "5.5mm/6.0mm" ,"approachurl2":"creovalue", "approachid2":"creoampthcocrdeformity",
								"breadcrumps" : [
									{"name" : "OPEN", "link" : "approach/open", "icon" : ">"},
									{"name" : "NO", "link" : "approach/openno", "icon" : ">"},
									{"name" : "DEFORMITY", "link" : "approach/deformity", "icon" : ">"},
									{"name" : "THREADED", "link" : "approach/deformitylocth", "icon" : ">"},
									{"name" : "COBALT CHROME", "link" : "approach/deformityscrewtypecocr", "icon" : ">"},
                                   					 {"name" : "MODULAR", "link" : "approach/deformitylocthcocrmodular", "icon" : ""}
									]
								}
							],
									"cocr4":
									[
										{"header":"SCREW TYPE",
										"name1": "PREASSEMBLED" ,"approachurl1":"creovalue", "approachid1":"creothcocr4deformity","char":"or",
										"name2": "MODULAR","approachurl2":"creovalue", "approachid2":"creoampthcocr4deformity",
										"breadcrumps" : [
											{"name" : "OPEN", "link" : "approach/open", "icon" : ">"},
											{"name" : "NO", "link" : "approach/openno", "icon" : ">"},
											{"name" : "DEFORMITY", "link" : "approach/deformity", "icon" : ">"},
											{"name" : "THREADED", "link" : "approach/deformitylocth", "icon" : ">"},
											{"name" : "COBALT CHROME", "link" : "approach/deformitylocthcocr", "icon" : ">"},
											{"name" : "4.75mm", "link" : "approach/cocr4", "icon" : ""}
											]
										}
									],
									"cocr5":
									[
										{"header":"SCREW TYPE",
										"name1": "PREASSEMBLED" ,"approachurl1":"creovalue", "approachid1":"creothcocrdeformity","char":"or",
										"name2": "MODULAR","approachurl2":"creovalue", "approachid2":"creoampthcocrdeformity",
										"breadcrumps" : [
											{"name" : "OPEN", "link" : "approach/open", "icon" : ">"},
											{"name" : "NO", "link" : "approach/openno", "icon" : ">"},
											{"name" : "DEFORMITY", "link" : "approach/deformity", "icon" : ">"},
											{"name" : "THREADED", "link" : "approach/deformitylocth", "icon" : ">"},
											{"name" : "COBALT CHROME", "link" : "approach/deformitylocthcocr", "icon" : ">"},
											{"name" : "5.5mm", "link" : "approach/cocr5", "icon" : ""}
											]
										}
									],
									"cocr6":
									[
										{"header":"SCREW TYPE",
										"name1": "PREASSEMBLED" ,"approachurl1":"creovalue", "approachid1":"creothcocrdeformity6","char":"or",
										"name2": "MODULAR","approachurl2":"creovalue", "approachid2":"creoampthcocrdeformity6",
										"breadcrumps" : [
											{"name" : "OPEN", "link" : "approach/open", "icon" : ">"},
											{"name" : "NO", "link" : "approach/openno", "icon" : ">"},
											{"name" : "DEFORMITY", "link" : "approach/deformity", "icon" : ">"},
											{"name" : "THREADED", "link" : "approach/deformitylocth", "icon" : ">"},
											{"name" : "COBALT CHROME", "link" : "approach/deformitylocthcocr", "icon" : ">"},
											{"name" : "6.0mm", "link" : "approach/cocr6", "icon" : ""}
											]
										}
									],																					
	 
		"percutaneous" :
		[
		    {"header": "AUGMENTING WITH CEMENT?",
			 "name1": "YES","approachurl1":"creovalue", "approachid1":"creofensmis","char":"or",
			 "name2": "NO" ,"approachurl2":"creovalue", "approachid2":"creomis",
			 "breadcrumps" : [
					{"name" : "PERCUTANEOUS", "link" : "approach/percutaneous", "icon" : ""}
					]
			 }
		],
		"perno":
			[
			    {"name1":"THREADED PEDICLE SCREW","approachurl1":"creovalue", "approachid1":"creomis",
				"breadcrumps" : [
					{"name" : "PERCUTANEOUS", "link" : "approach/percutaneous", "icon" : ">"},
					{"name" : "NO", "link" : "approach/perno", "icon" : ""}
					]
				}
			]

}